# Generated by read.py
# Fri Oct 19 13:50:05 2018

# Swarm parameters were calculated here using BOLSIG+ solver for the numerical solution of
# the Boltzmann equation for electrons in weakly ionized gases in uniform electric fields

# BOLSIG+ version: 03/2016
# Collision input data:
# --------------------------------------------------
# N2
# D:\Trabajo\bolsigplus032016-win\Cross section-O2-N2v_streamer.txt
# --------------------------------------------------
# N2(v1)
# D:\Trabajo\bolsigplus032016-win\Cross section-O2-N2v_streamer.txt
# --------------------------------------------------
# N2(v2)
# D:\Trabajo\bolsigplus032016-win\Cross section-O2-N2v_streamer.txt
# --------------------------------------------------
# N2(v3)
# D:\Trabajo\bolsigplus032016-win\Cross section-O2-N2v_streamer.txt
# --------------------------------------------------
# N2(v4)
# D:\Trabajo\bolsigplus032016-win\Cross section-O2-N2v_streamer.txt
# --------------------------------------------------
# N2(v5)
# D:\Trabajo\bolsigplus032016-win\Cross section-O2-N2v_streamer.txt
# --------------------------------------------------
# N2(v6)
# D:\Trabajo\bolsigplus032016-win\Cross section-O2-N2v_streamer.txt
# --------------------------------------------------
# N2(v7)
# D:\Trabajo\bolsigplus032016-win\Cross section-O2-N2v_streamer.txt
# --------------------------------------------------
# N2(v8)
# D:\Trabajo\bolsigplus032016-win\Cross section-O2-N2v_streamer.txt
# --------------------------------------------------
# N2(v9)
# D:\Trabajo\bolsigplus032016-win\Cross section-O2-N2v_streamer.txt
# --------------------------------------------------
# N2(v10)
# D:\Trabajo\bolsigplus032016-win\Cross section-O2-N2v_streamer.txt
# --------------------------------------------------
# O2
# D:\Trabajo\bolsigplus032016-win\Cross section-O2-N2v_streamer.txt
# --------------------------------------------------
# N2O
# D:\Trabajo\bolsigplus032016-win\Cross section-O2-N2v_streamer.txt
# --------------------------------------------------
# N
# D:\Trabajo\bolsigplus032016-win\Cross section-O2-N2v_streamer.txt
# --------------------------------------------------
# O
# D:\Trabajo\bolsigplus032016-win\Cross section-O2-N2v_streamer.txt
# --------------------------------------------------
# O3
# D:\Trabajo\bolsigplus032016-win\Cross section-O2-N2v_streamer.txt
# --------------------------------------------------
# H
# D:\Trabajo\bolsigplus032016-win\Cross section-O2-N2v_streamer.txt
# --------------------------------------------------
# CO2
# D:\Trabajo\bolsigplus032016-win\Cross section-O2-N2v_streamer.txt
# --------------------------------------------------
# CO2(0.083eV)
# D:\Trabajo\bolsigplus032016-win\Cross section-O2-N2v_streamer.txt
# --------------------------------------------------
# CO2(0.167eV)
# D:\Trabajo\bolsigplus032016-win\Cross section-O2-N2v_streamer.txt
# --------------------------------------------------
# CO2(0.252eV)
# D:\Trabajo\bolsigplus032016-win\Cross section-O2-N2v_streamer.txt
# --------------------------------------------------
# CO2(0.291eV)
# D:\Trabajo\bolsigplus032016-win\Cross section-O2-N2v_streamer.txt
# --------------------------------------------------
# CO2(0.339eV)
# D:\Trabajo\bolsigplus032016-win\Cross section-O2-N2v_streamer.txt
# --------------------------------------------------
# CO2(0.422eV)
# D:\Trabajo\bolsigplus032016-win\Cross section-O2-N2v_streamer.txt
# --------------------------------------------------
# CO2(0.505eV)
# D:\Trabajo\bolsigplus032016-win\Cross section-O2-N2v_streamer.txt
# --------------------------------------------------
# H2O
# D:\Trabajo\bolsigplus032016-win\Cross section-O2-N2v_streamer.txt
# --------------------------------------------------
# NO
# D:\Trabajo\bolsigplus032016-win\Cross section-O2-N2v_streamer.txt
# --------------------------------------------------
# CO
# D:\Trabajo\bolsigplus032016-win\Cross section-O2-N2v_streamer.txt
# 
# 
# 
# Angular frequency / N (m3/s)               0.000
# Cosine of E-B field angle                  0.000
# Gas temperature (K)                        200.0
# Excitation temperature (K)                 200.0
# Transition energy (eV)                     0.000
# Ionization degree                         0.1000E-09
# Plasma density (1/m3)                     0.1000E+12
# Ion charge parameter                       1.000
# Ion/neutral mass ratio                     1.000
# e-e momentum effects                       1.000
# Energy sharing                             1.000
# Growth model                               1.000
# Maxwellian mean energy (eV)                0.000
# # of grid points                           200.0
# Precision                                 0.1000E-09
# Convergence                               0.1000E-04
# Maximum # of iterations                    2000.
# Mole fraction N2                          0.7900
# Mole fraction N2(v1)                      0.9100E-07
# Mole fraction N2(v2)                      0.1300E-13
# Mole fraction N2(v3)                      0.2200E-20
# Mole fraction N2(v4)                      0.4700E-27
# Mole fraction N2(v5)                       0.000
# Mole fraction N2(v6)                       0.000
# Mole fraction N2(v7)                       0.000
# Mole fraction N2(v8)                       0.000
# Mole fraction N2(v9)                       0.000
# Mole fraction N2(v10)                      0.000
# Mole fraction O2                          0.2100
# Mole fraction N2O                         0.1600E-10
# Mole fraction N                           0.5300E-12
# Mole fraction O                           0.8400E-04
# Mole fraction O3                          0.3900E-06
# Mole fraction H                           0.1700E-08
# Mole fraction CO2                         0.5100E-04
# Mole fraction CO2(0.083eV)                 0.000
# Mole fraction CO2(0.167eV)                 0.000
# Mole fraction CO2(0.252eV)                 0.000
# Mole fraction CO2(0.291eV)                 0.000
# Mole fraction CO2(0.339eV)                 0.000
# Mole fraction CO2(0.422eV)                 0.000
# Mole fraction CO2(0.505eV)                 0.000
# Mole fraction H2O                         0.7600E-05
# Mole fraction NO                          0.6300E-07
# Mole fraction CO                          0.9300E-05
# Phelps database
# Hayashi database
# Morgan (Kinema Research  Software)
# Phelps database
# Phelps database
#

#
# PROCESS: E + H2O -> E + O 777 .4 nm, Excitation
#

1.000	0.9497E-19
1.072	0.9657E-19
1.150	0.9827E-19
1.233	0.1001E-18
1.322	0.1020E-18
1.417	0.1041E-18
1.520	0.1063E-18
1.630	0.1087E-18
1.748	0.1113E-18
1.874	0.1142E-18
2.009	0.1173E-18
2.154	0.1206E-18
2.310	0.1242E-18
2.477	0.1280E-18
2.656	0.1320E-18
2.848	0.1361E-18
3.054	0.1404E-18
3.275	0.1446E-18
3.511	0.1489E-18
3.765	0.1531E-18
4.037	0.1573E-18
4.329	0.1612E-18
4.642	0.1650E-18
4.977	0.1686E-18
5.337	0.1720E-18
5.722	0.1752E-18
6.136	0.1782E-18
6.579	0.1809E-18
7.055	0.1834E-18
7.565	0.1857E-18
8.111	0.1879E-18
8.697	0.1898E-18
9.326	0.1916E-18
10.00	0.1933E-18
10.72	0.1948E-18
11.50	0.1962E-18
12.33	0.1975E-18
13.22	0.1986E-18
14.17	0.1998E-18
15.20	0.2008E-18
16.30	0.2017E-18
17.48	0.2026E-18
18.74	0.2035E-18
20.09	0.2042E-18
21.54	0.2050E-18
23.10	0.2058E-18
24.77	0.2065E-18
26.56	0.2072E-18
28.48	0.2080E-18
30.54	0.2088E-18
32.75	0.2096E-18
35.11	0.2107E-18
37.65	0.2118E-18
40.37	0.2133E-18
43.29	0.2150E-18
46.42	0.2172E-18
49.77	0.2201E-18
53.37	0.2238E-18
57.22	0.2285E-18
61.36	0.2344E-18
65.79	0.2416E-18
70.55	0.2501E-18
75.65	0.2601E-18
81.11	0.2714E-18
86.97	0.2840E-18
93.26	0.2976E-18
100.0	0.3119E-18
107.2	0.3269E-18
115.0	0.3421E-18
123.3	0.3573E-18
132.2	0.3724E-18
141.7	0.3873E-18
152.0	0.4020E-18
163.0	0.4164E-18
174.8	0.4307E-18
187.4	0.4450E-18
200.9	0.4596E-18
215.4	0.4748E-18
231.0	0.4911E-18
247.7	0.5090E-18
265.6	0.5292E-18
284.8	0.5527E-18
305.4	0.5806E-18
327.5	0.6142E-18
351.1	0.6553E-18
376.5	0.7058E-18
403.7	0.7683E-18
432.9	0.8454E-18
464.2	0.9405E-18
497.7	0.1057E-17
533.7	0.1200E-17
572.2	0.1373E-17
613.6	0.1581E-17
657.9	0.1831E-17
705.5	0.2127E-17
756.5	0.2477E-17
811.1	0.2886E-17
869.7	0.3362E-17
932.6	0.3911E-17
1000.	0.4539E-17
